-----BEGIN PGP PUBLIC KEY BLOCK-----

mDMEYWlfvRYJKwYBBAHaRw8BAQdAx8meSOXDGJsjk2AvGanA5Mua7A14g6xwNAiM
8e3cj9O0CVRvck5vZGUwMYiWBBMWCAA+FiEEO/PSzz8w6Z6i8F/oENOcRNgBNCoF
AmFpX70CGwMFCQPCWGMFCwkIBwIGFQoJCAsCBBYCAwECHgECF4AACgkQENOcRNgB
NCoELQEA2+/qaL7N68CW2J6fMpND/J0O1rLs/1Gz5IB2XjdOx2QA/02LFBZZrFVQ
ky/7s8ysBHOmyKVFghc0Sim6avDi9j0LuDgEYWlfvRIKKwYBBAGXVQEFAQEHQBmK
bYuL9lR26MdQG/GFfsCidptKgI8zWrGpZHfI5ekOAwEIB4h+BBgWCAAmFiEEO/PS
zz8w6Z6i8F/oENOcRNgBNCoFAmFpX70CGwwFCQPCWGMACgkQENOcRNgBNCr6MQEA
rOWxF9gW89wdwwztFRPSz4S89SEIt3RUGAt34tCQ3IwA/j3nHfm9JCGy9VlbihVT
uK2vzvoYx8YGgSxF+9PXUdcK
=iBNO
-----END PGP PUBLIC KEY BLOCK-----
