-----BEGIN PGP PUBLIC KEY BLOCK-----

mDMEYWlgBBYJKwYBBAHaRw8BAQdAk12wb52AtCDtfNauOd91rVRX2DDrEQM6OVKc
DIvifUC0CVRvck5vZGUwM4iWBBMWCAA+FiEE+vnkDBcvskiakM0L8D35IgrKjF8F
AmFpYAQCGwMFCQPCWBwFCwkIBwIGFQoJCAsCBBYCAwECHgECF4AACgkQ8D35IgrK
jF89iQD7B2h1m7U1xE6birCnk4jf/fCLCa/y0HMhm3hxQBHAWIIA/A3I8KcDMtsN
a2TXp7osMnAg8kT0urZmBCfivLJiV9QJuDgEYWlgBBIKKwYBBAGXVQEFAQEHQAz2
5RkHhr3TThmhZe3p0pvtBDzUOBABkKq/6HdbBEBZAwEIB4h+BBgWCAAmFiEE+vnk
DBcvskiakM0L8D35IgrKjF8FAmFpYAQCGwwFCQPCWBwACgkQ8D35IgrKjF+mPgEA
9sCGAyfXSOP1SEYxo3Ey6ak7kwTzO+igPQ1i4BIlX5YA+gNmPaPiN8iibJ/ty+3K
xq9e1bHsKUSlfv/g1pWlAikM
=bspE
-----END PGP PUBLIC KEY BLOCK-----
